module service_a

go 1.22.1

require (
	github.com/TwiN/go-color v1.4.1
	github.com/jmoiron/sqlx v1.3.5
	github.com/lib/pq v1.2.0
	google.golang.org/grpc v1.62.1
	google.golang.org/protobuf v1.33.0
)

require (
	github.com/golang/protobuf v1.5.3 // indirect
	golang.org/x/net v0.20.0 // indirect
	golang.org/x/sys v0.16.0 // indirect
	golang.org/x/text v0.14.0 // indirect
	google.golang.org/genproto/googleapis/rpc v0.0.0-20240123012728-ef4313101c80 // indirect
)
